<?xml version="1.0" encoding="UTF-8" standalone="no"?>
<!-- Created with Inkscape (http://www.inkscape.org/) -->

<svg
   xmlns:dc="http://purl.org/dc/elements/1.1/"
   xmlns:cc="http://creativecommons.org/ns#"
   xmlns:rdf="http://www.w3.org/1999/02/22-rdf-syntax-ns#"
   xmlns:svg="http://www.w3.org/2000/svg"
   xmlns="http://www.w3.org/2000/svg"
   xmlns:sodipodi="http://sodipodi.sourceforge.net/DTD/sodipodi-0.dtd"
   xmlns:inkscape="http://www.inkscape.org/namespaces/inkscape"
   width="137mm"
   height="120mm"
   viewBox="0 0 136.99999 119.99641"
   version="1.1"
   id="svg6251"
   inkscape:version="0.92.4 (5da689c313, 2019-01-14)"
   sodipodi:docname="MX-FS-03V schematic.svg">
  <defs
     id="defs6245" />
  <sodipodi:namedview
     id="base"
     pagecolor="#ffffff"
     bordercolor="#666666"
     borderopacity="1.0"
     inkscape:pageopacity="0.0"
     inkscape:pageshadow="2"
     inkscape:zoom="1"
     inkscape:cx="108.25298"
     inkscape:cy="133.46484"
     inkscape:document-units="mm"
     inkscape:current-layer="layer1"
     showgrid="false"
     fit-margin-top="0"
     fit-margin-left="0"
     fit-margin-right="0"
     fit-margin-bottom="0"
     inkscape:window-width="1509"
     inkscape:window-height="871"
     inkscape:window-x="91"
     inkscape:window-y="0"
     inkscape:window-maximized="1" />
  <metadata
     id="metadata6248">
    <rdf:RDF>
      <cc:Work
         rdf:about="">
        <dc:format>image/svg+xml</dc:format>
        <dc:type
           rdf:resource="http://purl.org/dc/dcmitype/StillImage" />
        <dc:title></dc:title>
      </cc:Work>
    </rdf:RDF>
  </metadata>
  <g
     inkscape:label="Layer 1"
     inkscape:groupmode="layer"
     id="layer1"
     transform="translate(-4.7302104,57.60637)">
    <g
       style="fill:#840000;fill-opacity:0;stroke:#840000;stroke-width:49.00704575;stroke-linecap:round;stroke-linejoin:round;stroke-opacity:1"
       id="g582"
       transform="matrix(0.00518494,0,0,0.00518092,-29.16864,-89.326038)">
      <rect
         style="stroke-width:49.00704575"
         x="12500"
         y="24100"
         width="2000"
         height="800"
         rx="0"
         id="rect580" />
    </g>
    <g
       style="fill:#840000;fill-opacity:0;stroke:#840000;stroke-width:29.4042263;stroke-linecap:round;stroke-linejoin:round;stroke-opacity:1"
       id="g588"
       transform="matrix(0.00518494,0,0,0.00518092,-29.16864,-89.326038)">
      <path
         style="stroke-width:29.4042263"
         d="m 14500,24500 h 500"
         id="path584"
         inkscape:connector-curvature="0" />
      <path
         style="stroke-width:29.4042263"
         d="m 12500,24500 h -500"
         id="path586"
         inkscape:connector-curvature="0" />
    </g>
    <g
       style="fill:#008484;fill-opacity:0;stroke:#008484;stroke-width:29.4042263;stroke-linecap:round;stroke-linejoin:round;stroke-opacity:1"
       id="g608"
       transform="matrix(0.00518494,0,0,0.00518092,-29.16864,-89.326038)">
      <path
         style="stroke-width:29.4042263"
         d="m 13410,22670 -160,-240"
         id="path590"
         inkscape:connector-curvature="0" />
      <path
         style="stroke-width:29.4042263"
         d="m 13130,22670 v -500 h 190 l 40,30 30,20 20,50 v 70 l -20,50 -30,20 -40,20 h -190"
         id="path592"
         inkscape:connector-curvature="0" />
      <path
         style="stroke-width:29.4042263"
         d="m 13600,22220 30,-20 40,-30 h 120 l 50,30 20,20 30,50 v 40 l -30,80 -280,280 h 310"
         id="path594"
         inkscape:connector-curvature="0" />
      <path
         style="stroke-width:29.4042263"
         d="m 12770,23080 h 310 l -170,190 h 70 l 50,30 20,20 30,50 v 120 l -30,40 -20,30 -50,20 h -140 l -50,-20 -20,-30"
         id="path596"
         inkscape:connector-curvature="0" />
      <path
         style="stroke-width:29.4042263"
         d="m 13290,23530 30,30 -30,20 -20,-20 20,-30 v 50"
         id="path598"
         inkscape:connector-curvature="0" />
      <path
         style="stroke-width:29.4042263"
         d="m 13550,23580 h 100 l 50,-20 20,-30 50,-70 20,-90 v -190 l -20,-50 -20,-20 -50,-30 h -100 l -50,30 -20,20 -20,50 v 120 l 20,40 20,30 50,20 h 100 l 50,-20 20,-30 20,-40"
         id="path600"
         inkscape:connector-curvature="0" />
      <path
         style="stroke-width:29.4042263"
         d="m 14010,23580 v -500"
         id="path602"
         inkscape:connector-curvature="0" />
      <path
         style="stroke-width:29.4042263"
         d="m 14050,23390 150,190"
         id="path604"
         inkscape:connector-curvature="0" />
      <path
         style="stroke-width:29.4042263"
         d="m 14200,23250 -190,190"
         id="path606"
         inkscape:connector-curvature="0" />
    </g>
    <g
       style="fill:#840000;fill-opacity:0;stroke:#840000;stroke-width:98.01409149;stroke-linecap:round;stroke-linejoin:round;stroke-opacity:1"
       id="g618"
       transform="matrix(0.00518494,0,0,0.00518092,-29.16864,-89.326038)">
      <polyline
         style="stroke-width:98.01409149"
         fill="none;"
         points="25700,16700 25700,18300 "
         id="polyline614" />
      <polyline
         style="stroke-width:98.01409149"
         fill="none;"
         points="26300,16700 26300,18300 "
         id="polyline616" />
    </g>
    <g
       style="fill:#840000;fill-opacity:0;stroke:#840000;stroke-width:29.4042263;stroke-linecap:round;stroke-linejoin:round;stroke-opacity:1"
       id="g624"
       transform="matrix(0.00518494,0,0,0.00518092,-29.16864,-89.326038)">
      <path
         style="stroke-width:29.4042263"
         d="m 26400,17500 h 1100"
         id="path620"
         inkscape:connector-curvature="0" />
      <path
         style="stroke-width:29.4042263"
         d="M 25600,17500 H 24500"
         id="path622"
         inkscape:connector-curvature="0" />
    </g>
    <g
       style="fill:#008484;fill-opacity:0;stroke:#008484;stroke-width:29.4042263;stroke-linecap:round;stroke-linejoin:round;stroke-opacity:1"
       id="g636"
       transform="matrix(0.00518494,0,0,0.00518092,-29.16864,-89.326038)">
      <path
         style="stroke-width:29.4042263"
         d="m 25910,15170 -20,30 -70,20 h -50 l -70,-20 -50,-50 -20,-50 -30,-90 v -70 l 30,-100 20,-50 50,-40 70,-30 h 50 l 70,30 20,20"
         id="path626"
         inkscape:connector-curvature="0" />
      <path
         style="stroke-width:29.4042263"
         d="m 26100,14770 30,-20 40,-30 h 120 l 50,30 20,20 30,50 v 40 l -30,80 -280,280 h 310"
         id="path628"
         inkscape:connector-curvature="0" />
      <path
         style="stroke-width:29.4042263"
         d="m 25600,15630 h 340 l -220,500"
         id="path630"
         inkscape:connector-curvature="0" />
      <path
         style="stroke-width:29.4042263"
         d="m 26130,15800 v 500"
         id="path632"
         inkscape:connector-curvature="0" />
      <path
         style="stroke-width:29.4042263"
         d="m 26130,15820 40,-20 h 100 l 50,20 20,30 20,40 v 150 l -20,40 -20,30 -50,20 h -100 l -40,-20"
         id="path634"
         inkscape:connector-curvature="0" />
    </g>
    <g
       style="fill:#840000;fill-opacity:0;stroke:#840000;stroke-width:29.4042263;stroke-linecap:round;stroke-linejoin:round;stroke-opacity:1"
       id="g652"
       transform="matrix(0.00518494,0,0,0.00518092,-29.16864,-89.326038)">
      <path
         style="stroke-width:29.4042263"
         d="m 8540,24720 v -500 h 120 l 70,30 40,40 30,50 20,100 v 70 l -20,90 -30,50 -40,50 -70,20 h -120"
         id="path638"
         inkscape:connector-curvature="0" />
      <path
         style="stroke-width:29.4042263"
         d="m 9010,24580 h 240"
         id="path640"
         inkscape:connector-curvature="0" />
      <path
         style="stroke-width:29.4042263"
         d="m 8960,24720 170,-500 170,500"
         id="path642"
         inkscape:connector-curvature="0" />
      <path
         style="stroke-width:29.4042263"
         d="m 9390,24220 h 290"
         id="path644"
         inkscape:connector-curvature="0" />
      <path
         style="stroke-width:29.4042263"
         d="m 9540,24720 v -500"
         id="path646"
         inkscape:connector-curvature="0" />
      <path
         style="stroke-width:29.4042263"
         d="m 9820,24580 h 240"
         id="path648"
         inkscape:connector-curvature="0" />
      <path
         style="stroke-width:29.4042263"
         d="m 9770,24720 170,-500 170,500"
         id="path650"
         inkscape:connector-curvature="0" />
    </g>
    <g
       style="fill:#840000;fill-opacity:0;stroke:#840000;stroke-width:49.00704575;stroke-linecap:round;stroke-linejoin:round;stroke-opacity:1"
       id="g656"
       transform="matrix(0.00518494,0,0,0.00518092,-29.16864,-89.326038)">
      <polyline
         style="stroke-width:49.00704575"
         fill="none;"
         points="10500,24500 10250,24060 8280,24060 8280,24500 8280,24940 10250,24940 10500,24500 "
         id="polyline654" />
    </g>
    <g
       style="fill:#008400;fill-opacity:0;stroke:#008400;stroke-width:29.4042263;stroke-linecap:round;stroke-linejoin:round;stroke-opacity:1"
       id="g662"
       transform="matrix(0.00518494,0,0,0.00518092,-29.16864,-89.326038)">
      <path
         style="stroke-width:29.4042263"
         d="m 10500,24500 h 1500"
         id="path660"
         inkscape:connector-curvature="0" />
    </g>
    <g
       style="fill:#840000;fill-opacity:0;stroke:#840000;stroke-width:49.00704575;stroke-linecap:round;stroke-linejoin:round;stroke-opacity:1"
       id="g670"
       transform="matrix(0.00518494,0,0,0.00518092,-29.16864,-89.326038)">
      <circle
         style="stroke-width:49.00704575"
         cx="19500"
         cy="24500"
         r="1110"
         id="circle668" />
    </g>
    <g
       style="fill:#840000;fill-opacity:0;stroke:#840000;stroke-width:29.4042263;stroke-linecap:round;stroke-linejoin:round;stroke-opacity:1"
       id="g678"
       transform="matrix(0.00518494,0,0,0.00518092,-29.16864,-89.326038)">
      <polyline
         style="stroke-width:29.4042263"
         fill="none;"
         points="19000,24500 19250,24500 "
         id="polyline672" />
      <polyline
         style="stroke-width:29.4042263"
         fill="none;"
         points="19250,24250 20000,23500 "
         id="polyline674" />
      <polyline
         style="stroke-width:29.4042263"
         fill="none;"
         points="19250,24750 20000,25500 20000,25500 "
         id="polyline676" />
    </g>
    <g
       style="fill:#840000;fill-opacity:0;stroke:#840000;stroke-width:98.01409149;stroke-linecap:round;stroke-linejoin:round;stroke-opacity:1"
       id="g682"
       transform="matrix(0.00518494,0,0,0.00518092,-29.16864,-89.326038)">
      <polyline
         style="stroke-width:98.01409149"
         fill="none;"
         points="19250,23750 19250,25250 19250,25250 "
         id="polyline680" />
    </g>
    <g
       style="fill:#840000;fill-opacity:1;stroke:#840000;stroke-width:29.4042263;stroke-linecap:round;stroke-linejoin:round;stroke-opacity:1"
       id="g686"
       transform="matrix(0.00518494,0,0,0.00518092,-29.16864,-89.326038)">
      <polyline
         style="fill-rule:evenodd;stroke-width:29.4042263"
         points="19500,25200 19700,25000 19900,25400 19500,25200 19500,25200 "
         id="polyline684" />
    </g>
    <g
       style="fill:#840000;fill-opacity:0;stroke:#840000;stroke-width:29.4042263;stroke-linecap:round;stroke-linejoin:round;stroke-opacity:1"
       id="g702"
       transform="matrix(0.00518494,0,0,0.00518092,-29.16864,-89.326038)">
      <path
         style="stroke-width:29.4042263"
         d="m 20000,25500 v 1000"
         id="path688"
         inkscape:connector-curvature="0" />
      <path
         style="stroke-width:29.4042263"
         d="m 20570,25850 v 290"
         id="path690"
         inkscape:connector-curvature="0" />
      <path
         style="stroke-width:29.4042263"
         d="m 20570,26000 h -500 l 70,40 50,50 20,50"
         id="path692"
         inkscape:connector-curvature="0" />
      <path
         style="stroke-width:29.4042263"
         d="M 19000,24500 H 17000"
         id="path694"
         inkscape:connector-curvature="0" />
      <path
         style="stroke-width:29.4042263"
         d="m 17850,24620 30,-20 40,-30 h 120 l 50,30 20,20 30,50 v 40 l -30,80 -280,280 h 310"
         id="path696"
         inkscape:connector-curvature="0" />
      <path
         style="stroke-width:29.4042263"
         d="M 20000,23500 V 22500"
         id="path698"
         inkscape:connector-curvature="0" />
      <path
         style="stroke-width:29.4042263"
         d="m 20070,23160 v -310 l 190,170 v -70 l 30,-50 20,-20 50,-30 h 120 l 40,30 30,20 20,50 v 140 l -20,50 -30,20"
         id="path700"
         inkscape:connector-curvature="0" />
    </g>
    <path
       inkscape:connector-curvature="0"
       id="path704"
       d="M 81.737227,36.725746 81.47798,36.622127 81.218733,36.363081 80.855787,36.000417 80.59654,35.844989 h -0.207398"
       style="fill:#008484;fill-opacity:0;stroke:#008484;stroke-width:0.15240003;stroke-linecap:round;stroke-linejoin:round;stroke-opacity:1" />
    <path
       inkscape:connector-curvature="0"
       id="path706"
       d="m 80.492841,36.4667 -0.259247,-0.103619 -0.259247,-0.259046 -0.103699,-0.518092 v -0.828947 l 0.103699,-0.518092 0.259247,-0.207237 0.259247,-0.155427 h 0.466645 l 0.259247,0.155427 0.259247,0.207237 0.103698,0.518092 v 0.828947 l -0.103698,0.518092 -0.259247,0.259046 -0.259247,0.103619 h -0.466645"
       style="fill:#008484;fill-opacity:0;stroke:#008484;stroke-width:0.15240003;stroke-linecap:round;stroke-linejoin:round;stroke-opacity:1" />
    <path
       inkscape:connector-curvature="0"
       id="path708"
       d="m 82.566817,34.135286 0.155548,-0.103619 0.259247,-0.155427 h 0.570344 l 0.259247,0.155427 0.155548,0.103619 0.103699,0.259046 v 0.207236 l -0.103699,0.414474 -1.503633,1.450658 h 1.607332"
       style="fill:#008484;fill-opacity:0;stroke:#008484;stroke-width:0.15240003;stroke-linecap:round;stroke-linejoin:round;stroke-opacity:1" />
    <g
       style="fill:#008400;fill-opacity:0;stroke:#008400;stroke-width:29.4042263;stroke-linecap:round;stroke-linejoin:round;stroke-opacity:1"
       id="g724"
       transform="matrix(0.00518494,0,0,0.00518092,-29.16864,-89.326038)">
      <path
         style="stroke-width:29.4042263"
         d="m 15000,24500 h 2000"
         id="path722"
         inkscape:connector-curvature="0" />
    </g>
    <g
       style="fill:#840000;fill-opacity:1;stroke:#840000;stroke-width:49.00704575;stroke-linecap:round;stroke-linejoin:round;stroke-opacity:1"
       id="g732"
       transform="matrix(0.00518494,0,0,0.00518092,-29.16864,-89.326038)">
      <rect
         style="stroke-width:49.00704575"
         x="19500"
         y="28600"
         width="1000"
         height="200"
         rx="0"
         id="rect730" />
    </g>
    <g
       style="fill:#840000;fill-opacity:0;stroke:#840000;stroke-width:29.4042263;stroke-linecap:round;stroke-linejoin:round;stroke-opacity:1"
       id="g736"
       transform="matrix(0.00518494,0,0,0.00518092,-29.16864,-89.326038)">
      <polyline
         style="stroke-width:29.4042263"
         fill="none;"
         points="20000,28000 20000,28600 "
         id="polyline734" />
    </g>
    <g
       style="fill:#008400;fill-opacity:0;stroke:#008400;stroke-width:29.4042263;stroke-linecap:round;stroke-linejoin:round;stroke-opacity:1"
       id="g740"
       transform="matrix(0.00518494,0,0,0.00518092,-29.16864,-89.326038)">
      <path
         style="stroke-width:29.4042263"
         d="m 20000,26500 v 1500"
         id="path738"
         inkscape:connector-curvature="0" />
    </g>
    <g
       style="fill:#840000;fill-opacity:0;stroke:#840000;stroke-width:49.00704575;stroke-linecap:round;stroke-linejoin:round;stroke-opacity:1"
       id="g748"
       transform="matrix(0.00518494,0,0,0.00518092,-29.16864,-89.326038)">
      <circle
         style="stroke-width:49.00704575"
         cx="19500"
         cy="19500"
         r="1110"
         id="circle746" />
    </g>
    <g
       style="fill:#840000;fill-opacity:0;stroke:#840000;stroke-width:29.4042263;stroke-linecap:round;stroke-linejoin:round;stroke-opacity:1"
       id="g756"
       transform="matrix(0.00518494,0,0,0.00518092,-29.16864,-89.326038)">
      <polyline
         style="stroke-width:29.4042263"
         fill="none;"
         points="19000,19500 19200,19500 "
         id="polyline750" />
      <polyline
         style="stroke-width:29.4042263"
         fill="none;"
         points="19250,19250 20000,18500 "
         id="polyline752" />
      <polyline
         style="stroke-width:29.4042263"
         fill="none;"
         points="19250,19750 20000,20500 20000,20500 "
         id="polyline754" />
    </g>
    <g
       style="fill:#840000;fill-opacity:0;stroke:#840000;stroke-width:98.01409149;stroke-linecap:round;stroke-linejoin:round;stroke-opacity:1"
       id="g760"
       transform="matrix(0.00518494,0,0,0.00518092,-29.16864,-89.326038)">
      <polyline
         style="stroke-width:98.01409149"
         fill="none;"
         points="19250,18750 19250,20250 19250,20250 "
         id="polyline758" />
    </g>
    <g
       style="fill:#840000;fill-opacity:1;stroke:#840000;stroke-width:29.4042263;stroke-linecap:round;stroke-linejoin:round;stroke-opacity:1"
       id="g764"
       transform="matrix(0.00518494,0,0,0.00518092,-29.16864,-89.326038)">
      <polyline
         style="fill-rule:evenodd;stroke-width:29.4042263"
         points="19500,20200 19700,20000 19900,20400 19500,20200 19500,20200 "
         id="polyline762" />
    </g>
    <g
       style="fill:#840000;fill-opacity:0;stroke:#840000;stroke-width:29.4042263;stroke-linecap:round;stroke-linejoin:round;stroke-opacity:1"
       id="g780"
       transform="matrix(0.00518494,0,0,0.00518092,-29.16864,-89.326038)">
      <path
         style="stroke-width:29.4042263"
         d="m 20000,20500 v 1000"
         id="path766"
         inkscape:connector-curvature="0" />
      <path
         style="stroke-width:29.4042263"
         d="m 20570,20850 v 290"
         id="path768"
         inkscape:connector-curvature="0" />
      <path
         style="stroke-width:29.4042263"
         d="m 20570,21000 h -500 l 70,40 50,50 20,50"
         id="path770"
         inkscape:connector-curvature="0" />
      <path
         style="stroke-width:29.4042263"
         d="M 20000,18500 V 17500"
         id="path772"
         inkscape:connector-curvature="0" />
      <path
         style="stroke-width:29.4042263"
         d="m 20120,18140 -20,-30 -30,-40 v -120 l 30,-50 20,-20 50,-30 h 40 l 80,30 280,280 v -310"
         id="path774"
         inkscape:connector-curvature="0" />
      <path
         style="stroke-width:29.4042263"
         d="M 19000,19500 H 17000"
         id="path776"
         inkscape:connector-curvature="0" />
      <path
         style="stroke-width:29.4042263"
         d="m 17830,19570 h 310 l -170,190 h 70 l 50,30 20,20 30,50 v 120 l -30,40 -20,30 -50,20 h -140 l -50,-20 -20,-30"
         id="path778"
         inkscape:connector-curvature="0" />
    </g>
    <path
       inkscape:connector-curvature="0"
       id="path782"
       d="M 81.737227,10.821146 81.47798,10.717527 81.218733,10.458481 80.855787,10.095817 80.59654,9.9403892 h -0.207398"
       style="fill:#008484;fill-opacity:0;stroke:#008484;stroke-width:0.15240003;stroke-linecap:round;stroke-linejoin:round;stroke-opacity:1" />
    <path
       inkscape:connector-curvature="0"
       id="path784"
       d="M 80.492841,10.5621 80.233594,10.458481 79.974347,10.199435 79.870648,9.6813432 V 8.852396 l 0.103699,-0.518092 0.259247,-0.2072368 0.259247,-0.1554276 h 0.466645 l 0.259247,0.1554276 0.259247,0.2072368 0.103698,0.518092 V 9.6813432 L 81.47798,10.199435 81.218733,10.458481 80.959486,10.5621 h -0.466645"
       style="fill:#008484;fill-opacity:0;stroke:#008484;stroke-width:0.15240003;stroke-linecap:round;stroke-linejoin:round;stroke-opacity:1" />
    <path
       inkscape:connector-curvature="0"
       id="path786"
       d="M 84.07045,10.5621 H 82.566817"
       style="fill:#008484;fill-opacity:0;stroke:#008484;stroke-width:0.15240003;stroke-linecap:round;stroke-linejoin:round;stroke-opacity:1" />
    <path
       inkscape:connector-curvature="0"
       id="path788"
       d="M 83.344558,10.5621 V 7.9716396 L 83.085311,8.334304 82.826064,8.59335 82.566817,8.6969684"
       style="fill:#008484;fill-opacity:0;stroke:#008484;stroke-width:0.15240003;stroke-linecap:round;stroke-linejoin:round;stroke-opacity:1" />
    <g
       style="fill:#008400;fill-opacity:0;stroke:#008400;stroke-width:29.4042263;stroke-linecap:round;stroke-linejoin:round;stroke-opacity:1"
       id="g814"
       transform="matrix(0.00518494,0,0,0.00518092,-29.16864,-89.326038)">
      <path
         style="stroke-width:29.4042263"
         d="m 20000,21500 v 500"
         id="path810"
         inkscape:connector-curvature="0" />
      <path
         style="stroke-width:29.4042263"
         d="m 20000,17500 h 2000"
         id="path812"
         inkscape:connector-curvature="0" />
    </g>
    <g
       style="fill:#840000;fill-opacity:0;stroke:#840000;stroke-width:49.00704575;stroke-linecap:round;stroke-linejoin:round;stroke-opacity:1"
       id="g824"
       transform="matrix(0.00518494,0,0,0.00518092,-29.16864,-89.326038)">
      <polyline
         style="stroke-width:49.00704575"
         fill="none;"
         points="29000,14500 29000,17000 "
         id="polyline820" />
      <polyline
         style="stroke-width:49.00704575"
         fill="none;"
         points="29500,14500 29000,16500 28500,14500 "
         id="polyline822" />
    </g>
    <g
       style="fill:#840000;fill-opacity:0;stroke:#840000;stroke-width:29.4042263;stroke-linecap:round;stroke-linejoin:round;stroke-opacity:1"
       id="g828"
       transform="matrix(0.00518494,0,0,0.00518092,-29.16864,-89.326038)">
      <path
         style="stroke-width:29.4042263"
         d="m 29000,16500 v 1000"
         id="path826"
         inkscape:connector-curvature="0" />
    </g>
    <g
       style="fill:#008484;fill-opacity:0;stroke:#008484;stroke-width:29.4042263;stroke-linecap:round;stroke-linejoin:round;stroke-opacity:1"
       id="g868"
       transform="matrix(0.00518494,0,0,0.00518092,-29.16864,-89.326038)">
      <path
         style="stroke-width:29.4042263"
         d="m 29920,15690 h 240"
         id="path830"
         inkscape:connector-curvature="0" />
      <path
         style="stroke-width:29.4042263"
         d="m 29870,15830 170,-500 170,500"
         id="path832"
         inkscape:connector-curvature="0" />
      <path
         style="stroke-width:29.4042263"
         d="m 30370,15570 h 170"
         id="path834"
         inkscape:connector-curvature="0" />
      <path
         style="stroke-width:29.4042263"
         d="m 30610,15830 h -240 v -500 h 240"
         id="path836"
         inkscape:connector-curvature="0" />
      <path
         style="stroke-width:29.4042263"
         d="m 31090,15830 h -290"
         id="path838"
         inkscape:connector-curvature="0" />
      <path
         style="stroke-width:29.4042263"
         d="m 30950,15830 v -500 l -50,70 -50,50 -50,20"
         id="path840"
         inkscape:connector-curvature="0" />
      <path
         style="stroke-width:29.4042263"
         d="m 29910,16600 h 240"
         id="path842"
         inkscape:connector-curvature="0" />
      <path
         style="stroke-width:29.4042263"
         d="m 29870,16740 160,-500 170,500"
         id="path844"
         inkscape:connector-curvature="0" />
      <path
         style="stroke-width:29.4042263"
         d="m 30370,16410 v 330"
         id="path846"
         inkscape:connector-curvature="0" />
      <path
         style="stroke-width:29.4042263"
         d="m 30370,16460 20,-30 50,-20 h 70 l 50,20 20,50 v 260"
         id="path848"
         inkscape:connector-curvature="0" />
      <path
         style="stroke-width:29.4042263"
         d="m 30750,16410 h 190"
         id="path850"
         inkscape:connector-curvature="0" />
      <path
         style="stroke-width:29.4042263"
         d="m 30820,16240 v 430 l 20,50 50,20 h 50"
         id="path852"
         inkscape:connector-curvature="0" />
      <path
         style="stroke-width:29.4042263"
         d="m 31300,16720 -50,20 h -100 l -50,-20 -20,-50 v -190 l 20,-50 50,-20 h 100 l 50,20 20,50 v 50 l -240,40"
         id="path854"
         inkscape:connector-curvature="0" />
      <path
         style="stroke-width:29.4042263"
         d="m 31530,16410 v 330"
         id="path856"
         inkscape:connector-curvature="0" />
      <path
         style="stroke-width:29.4042263"
         d="m 31530,16460 30,-30 40,-20 h 80 l 40,20 30,50 v 260"
         id="path858"
         inkscape:connector-curvature="0" />
      <path
         style="stroke-width:29.4042263"
         d="m 31990,16410 v 330"
         id="path860"
         inkscape:connector-curvature="0" />
      <path
         style="stroke-width:29.4042263"
         d="m 31990,16460 20,-30 50,-20 h 70 l 50,20 20,50 v 260"
         id="path862"
         inkscape:connector-curvature="0" />
      <path
         style="stroke-width:29.4042263"
         d="m 32650,16740 v -260 l -20,-50 -50,-20 h -90 l -50,20"
         id="path864"
         inkscape:connector-curvature="0" />
      <path
         style="stroke-width:29.4042263"
         d="m 32650,16720 -50,20 h -110 l -50,-20 -30,-50 v -50 l 30,-50 50,-20 h 110 l 50,-20"
         id="path866"
         inkscape:connector-curvature="0" />
    </g>
    <g
       style="fill:#008400;fill-opacity:0;stroke:#008400;stroke-width:29.4042263;stroke-linecap:round;stroke-linejoin:round;stroke-opacity:1"
       id="g872"
       transform="matrix(0.00518494,0,0,0.00518092,-29.16864,-89.326038)">
      <path
         style="stroke-width:29.4042263"
         d="m 27500,17500 h 1500"
         id="path870"
         inkscape:connector-curvature="0" />
    </g>
    <g
       style="fill:#840000;fill-opacity:0;stroke:#840000;stroke-width:29.4042263;stroke-linecap:round;stroke-linejoin:round;stroke-opacity:1"
       id="g890"
       transform="matrix(0.00518494,0,0,0.00518092,-29.16864,-89.326038)">
      <path
         style="stroke-width:29.4042263"
         d="m 22000.4,16000 a 250,250 0 0 0 0,-500"
         id="path878"
         inkscape:connector-curvature="0" />
      <path
         style="stroke-width:29.4042263"
         d="m 22000.4,15500 a 250,250 0 0 0 0,-500"
         id="path880"
         inkscape:connector-curvature="0" />
      <path
         style="stroke-width:29.4042263"
         d="m 22000.4,15000 a 250,250 0 0 0 0,-500"
         id="path882"
         inkscape:connector-curvature="0" />
      <path
         style="stroke-width:29.4042263"
         d="m 22000.4,14500 a 250,250 0 0 0 0,-500"
         id="path884"
         inkscape:connector-curvature="0" />
      <path
         style="stroke-width:29.4042263"
         d="m 22000,14000 v -500"
         id="path886"
         inkscape:connector-curvature="0" />
      <path
         style="stroke-width:29.4042263"
         d="m 22000,16000 v 500"
         id="path888"
         inkscape:connector-curvature="0" />
    </g>
    <g
       style="fill:#008484;fill-opacity:0;stroke:#008484;stroke-width:29.4042263;stroke-linecap:round;stroke-linejoin:round;stroke-opacity:1"
       id="g896"
       transform="matrix(0.00518494,0,0,0.00518092,-29.16864,-89.326038)">
      <path
         style="stroke-width:29.4042263"
         d="m 22910,14780 h -240 v -500"
         id="path892"
         inkscape:connector-curvature="0" />
      <path
         style="stroke-width:29.4042263"
         d="m 23050,14330 30,-20 50,-30 h 120 l 40,30 30,20 20,50 v 40 l -20,80 -290,280 h 310"
         id="path894"
         inkscape:connector-curvature="0" />
    </g>
    <g
       style="fill:#840000;fill-opacity:0;stroke:#840000;stroke-width:29.4042263;stroke-linecap:round;stroke-linejoin:round;stroke-opacity:1"
       id="g914"
       transform="matrix(0.00518494,0,0,0.00518092,-29.16864,-89.326038)">
      <path
         style="stroke-width:29.4042263"
         d="m 17000.4,11000 a 250,250 0 0 0 0,-500"
         id="path902"
         inkscape:connector-curvature="0" />
      <path
         style="stroke-width:29.4042263"
         d="m 17000.4,10500 a 250,250 0 0 0 0,-500"
         id="path904"
         inkscape:connector-curvature="0" />
      <path
         style="stroke-width:29.4042263"
         d="m 17000.4,10000 a 250,250 0 0 0 0,-500"
         id="path906"
         inkscape:connector-curvature="0" />
      <path
         style="stroke-width:29.4042263"
         d="m 17000.4,9500 a 250,250 0 0 0 0,-500"
         id="path908"
         inkscape:connector-curvature="0" />
      <path
         style="stroke-width:29.4042263"
         d="M 17000,9000 V 8500"
         id="path910"
         inkscape:connector-curvature="0" />
      <path
         style="stroke-width:29.4042263"
         d="m 17000,11000 v 500"
         id="path912"
         inkscape:connector-curvature="0" />
    </g>
    <g
       style="fill:#008484;fill-opacity:0;stroke:#008484;stroke-width:29.4042263;stroke-linecap:round;stroke-linejoin:round;stroke-opacity:1"
       id="g922"
       transform="matrix(0.00518494,0,0,0.00518092,-29.16864,-89.326038)">
      <path
         style="stroke-width:29.4042263"
         d="m 17910,9780 h -240 v -500"
         id="path916"
         inkscape:connector-curvature="0" />
      <path
         style="stroke-width:29.4042263"
         d="m 18340,9780 h -290"
         id="path918"
         inkscape:connector-curvature="0" />
      <path
         style="stroke-width:29.4042263"
         d="m 18200,9780 v -500 l -50,70 -50,50 -50,20"
         id="path920"
         inkscape:connector-curvature="0" />
    </g>
    <g
       style="fill:#840000;fill-opacity:0;stroke:#840000;stroke-width:98.01409149;stroke-linecap:round;stroke-linejoin:round;stroke-opacity:1"
       id="g932"
       transform="matrix(0.00518494,0,0,0.00518092,-29.16864,-89.326038)">
      <polyline
         style="stroke-width:98.01409149"
         fill="none;"
         points="7200,15800 8800,15800 "
         id="polyline928" />
      <polyline
         style="stroke-width:98.01409149"
         fill="none;"
         points="7200,15200 8800,15200 "
         id="polyline930" />
    </g>
    <g
       style="fill:#840000;fill-opacity:0;stroke:#840000;stroke-width:29.4042263;stroke-linecap:round;stroke-linejoin:round;stroke-opacity:1"
       id="g938"
       transform="matrix(0.00518494,0,0,0.00518092,-29.16864,-89.326038)">
      <path
         style="stroke-width:29.4042263"
         d="M 8000,15100 V 14000"
         id="path934"
         inkscape:connector-curvature="0" />
      <path
         style="stroke-width:29.4042263"
         d="m 8000,15900 v 1100"
         id="path936"
         inkscape:connector-curvature="0" />
    </g>
    <g
       style="fill:#008484;fill-opacity:0;stroke:#008484;stroke-width:29.4042263;stroke-linecap:round;stroke-linejoin:round;stroke-opacity:1"
       id="g952"
       transform="matrix(0.00518494,0,0,0.00518092,-29.16864,-89.326038)">
      <path
         style="stroke-width:29.4042263"
         d="m 9580,15230 -20,30 -70,20 h -50 l -70,-20 -50,-50 -20,-50 -30,-90 v -70 l 30,-100 20,-50 50,-40 70,-30 h 50 l 70,30 20,20"
         id="path940"
         inkscape:connector-curvature="0" />
      <path
         style="stroke-width:29.4042263"
         d="M 10060,15280 H 9770"
         id="path942"
         inkscape:connector-curvature="0" />
      <path
         style="stroke-width:29.4042263"
         d="m 9920,15280 v -500 l -50,70 -50,50 -50,20"
         id="path944"
         inkscape:connector-curvature="0" />
      <path
         style="stroke-width:29.4042263"
         d="m 9240,15690 h 340 l -220,500"
         id="path946"
         inkscape:connector-curvature="0" />
      <path
         style="stroke-width:29.4042263"
         d="m 9770,15860 v 500"
         id="path948"
         inkscape:connector-curvature="0" />
      <path
         style="stroke-width:29.4042263"
         d="m 9770,15880 40,-20 h 100 l 50,20 20,30 20,40 v 150 l -20,40 -20,30 -50,20 h -100 l -40,-20"
         id="path950"
         inkscape:connector-curvature="0" />
    </g>
    <g
       style="fill:#840000;fill-opacity:0;stroke:#840000;stroke-width:49.00704575;stroke-linecap:round;stroke-linejoin:round;stroke-opacity:1"
       id="g960"
       transform="matrix(0.00518494,0,0,0.00518092,-29.16864,-89.326038)">
      <rect
         style="stroke-width:49.00704575"
         x="11100"
         y="16000"
         width="800"
         height="2000"
         rx="0"
         id="rect958" />
    </g>
    <g
       style="fill:#840000;fill-opacity:0;stroke:#840000;stroke-width:29.4042263;stroke-linecap:round;stroke-linejoin:round;stroke-opacity:1"
       id="g966"
       transform="matrix(0.00518494,0,0,0.00518092,-29.16864,-89.326038)">
      <path
         style="stroke-width:29.4042263"
         d="m 11500,16000 v -500"
         id="path962"
         inkscape:connector-curvature="0" />
      <path
         style="stroke-width:29.4042263"
         d="m 11500,18000 v 500"
         id="path964"
         inkscape:connector-curvature="0" />
    </g>
    <g
       style="fill:#008484;fill-opacity:0;stroke:#008484;stroke-width:29.4042263;stroke-linecap:round;stroke-linejoin:round;stroke-opacity:1"
       id="g988"
       transform="matrix(0.00518494,0,0,0.00518092,-29.16864,-89.326038)">
      <path
         style="stroke-width:29.4042263"
         d="m 12630,16780 -160,-240"
         id="path968"
         inkscape:connector-curvature="0" />
      <path
         style="stroke-width:29.4042263"
         d="m 12350,16780 v -500 h 190 l 40,30 30,20 20,50 v 70 l -20,50 -30,20 -40,20 h -190"
         id="path970"
         inkscape:connector-curvature="0" />
      <path
         style="stroke-width:29.4042263"
         d="m 13110,16780 h -290"
         id="path972"
         inkscape:connector-curvature="0" />
      <path
         style="stroke-width:29.4042263"
         d="m 12970,16780 v -500 l -50,70 -50,50 -50,20"
         id="path974"
         inkscape:connector-curvature="0" />
      <path
         style="stroke-width:29.4042263"
         d="m 12580,17190 h -230 l -30,240 30,-20 40,-30 h 120 l 50,30 20,20 30,50 v 120 l -30,40 -20,30 -50,20 h -120 l -40,-20 -30,-30"
         id="path976"
         inkscape:connector-curvature="0" />
      <path
         style="stroke-width:29.4042263"
         d="m 12820,17640 30,30 -30,20 -20,-20 20,-30 v 50"
         id="path978"
         inkscape:connector-curvature="0" />
      <path
         style="stroke-width:29.4042263"
         d="m 13280,17190 h -100 l -50,30 -20,20 -50,70 -20,100 v 190 l 20,40 20,30 50,20 h 100 l 50,-20 20,-30 20,-40 v -120 l -20,-50 -20,-20 -50,-30 h -100 l -50,30 -20,20 -20,50"
         id="path980"
         inkscape:connector-curvature="0" />
      <path
         style="stroke-width:29.4042263"
         d="m 13540,17690 v -500"
         id="path982"
         inkscape:connector-curvature="0" />
      <path
         style="stroke-width:29.4042263"
         d="m 13580,17500 150,190"
         id="path984"
         inkscape:connector-curvature="0" />
      <path
         style="stroke-width:29.4042263"
         d="m 13730,17360 -190,190"
         id="path986"
         inkscape:connector-curvature="0" />
    </g>
    <g
       style="fill:#840000;fill-opacity:0;stroke:#840000;stroke-width:58.80845261;stroke-linecap:round;stroke-linejoin:round;stroke-opacity:1"
       id="g996"
       transform="matrix(0.00518494,0,0,0.00518092,-29.16864,-89.326038)">
      <rect
         style="stroke-width:58.80845261"
         x="16000"
         y="15050"
         width="2000"
         height="900"
         rx="0"
         id="rect994" />
    </g>
    <g
       style="fill:#840000;fill-opacity:0;stroke:#840000;stroke-width:29.4042263;stroke-linecap:round;stroke-linejoin:round;stroke-opacity:1"
       id="g1000"
       transform="matrix(0.00518494,0,0,0.00518092,-29.16864,-89.326038)">
      <polyline
         style="stroke-width:29.4042263"
         fill="none;"
         points="17000,14500 17000,14750 "
         id="polyline998" />
    </g>
    <g
       style="fill:#840000;fill-opacity:0;stroke:#840000;stroke-width:98.01409149;stroke-linecap:round;stroke-linejoin:round;stroke-opacity:1"
       id="g1004"
       transform="matrix(0.00518494,0,0,0.00518092,-29.16864,-89.326038)">
      <polyline
         style="stroke-width:98.01409149"
         fill="none;"
         points="16500,14750 17500,14750 "
         id="polyline1002" />
    </g>
    <g
       style="fill:#840000;fill-opacity:0;stroke:#840000;stroke-width:29.4042263;stroke-linecap:round;stroke-linejoin:round;stroke-opacity:1"
       id="g1010"
       transform="matrix(0.00518494,0,0,0.00518092,-29.16864,-89.326038)">
      <polyline
         style="stroke-width:29.4042263"
         fill="none;"
         points="15500,15500 15600,15500 "
         id="polyline1006" />
      <polyline
         style="stroke-width:29.4042263"
         fill="none;"
         points="17000,16250 17000,16500 "
         id="polyline1008" />
    </g>
    <g
       style="fill:#840000;fill-opacity:0;stroke:#840000;stroke-width:98.01409149;stroke-linecap:round;stroke-linejoin:round;stroke-opacity:1"
       id="g1014"
       transform="matrix(0.00518494,0,0,0.00518092,-29.16864,-89.326038)">
      <polyline
         style="stroke-width:98.01409149"
         fill="none;"
         points="17500,16250 16500,16250 "
         id="polyline1012" />
    </g>
    <g
       style="fill:#840000;fill-opacity:0;stroke:#840000;stroke-width:29.4042263;stroke-linecap:round;stroke-linejoin:round;stroke-opacity:1"
       id="g1032"
       transform="matrix(0.00518494,0,0,0.00518092,-29.16864,-89.326038)">
      <polyline
         style="stroke-width:29.4042263"
         fill="none;"
         points="16100,14500 15600,14500 15600,16500 16100,16500 "
         id="polyline1016" />
      <path
         style="stroke-width:29.4042263"
         d="m 17000,14500 v -500"
         id="path1018"
         inkscape:connector-curvature="0" />
      <path
         style="stroke-width:29.4042263"
         d="m 16870,14100 v 290"
         id="path1020"
         inkscape:connector-curvature="0" />
      <path
         style="stroke-width:29.4042263"
         d="m 16870,14250 h -500 l 70,40 50,50 20,50"
         id="path1022"
         inkscape:connector-curvature="0" />
      <path
         style="stroke-width:29.4042263"
         d="m 15500,15500 h -500"
         id="path1024"
         inkscape:connector-curvature="0" />
      <path
         style="stroke-width:29.4042263"
         d="m 15100,14920 30,-20 40,-30 h 120 l 50,30 20,20 30,50 v 40 l -30,80 -280,280 h 310"
         id="path1026"
         inkscape:connector-curvature="0" />
      <path
         style="stroke-width:29.4042263"
         d="m 17000,16500 v 500"
         id="path1028"
         inkscape:connector-curvature="0" />
      <path
         style="stroke-width:29.4042263"
         d="m 16370,16910 v -310 l 190,170 v -70 l 30,-50 20,-20 50,-30 h 120 l 40,30 30,20 20,50 v 140 l -20,50 -30,20"
         id="path1030"
         inkscape:connector-curvature="0" />
    </g>
    <g
       style="fill:#008484;fill-opacity:0;stroke:#008484;stroke-width:29.4042263;stroke-linecap:round;stroke-linejoin:round;stroke-opacity:1"
       id="g1054"
       transform="matrix(0.00518494,0,0,0.00518092,-29.16864,-89.326038)">
      <path
         style="stroke-width:29.4042263"
         d="m 18430,15260 70,20 h 120 l 50,-20 20,-30 30,-40 v -50 l -30,-50 -20,-20 -50,-30 -90,-20 -50,-20 -20,-30 -30,-50 v -40 l 30,-50 20,-20 50,-30 h 120 l 70,30"
         id="path1034"
         inkscape:connector-curvature="0" />
      <path
         style="stroke-width:29.4042263"
         d="m 18910,15140 h 240"
         id="path1036"
         inkscape:connector-curvature="0" />
      <path
         style="stroke-width:29.4042263"
         d="m 18860,15280 170,-500 160,500"
         id="path1038"
         inkscape:connector-curvature="0" />
      <path
         style="stroke-width:29.4042263"
         d="m 19310,14780 120,500 100,-360 90,360 120,-500"
         id="path1040"
         inkscape:connector-curvature="0" />
      <path
         style="stroke-width:29.4042263"
         d="m 18740,16190 -170,-240"
         id="path1042"
         inkscape:connector-curvature="0" />
      <path
         style="stroke-width:29.4042263"
         d="m 18450,16190 v -500 h 190 l 50,30 20,20 30,50 v 70 l -30,50 -20,20 -50,20 h -190"
         id="path1044"
         inkscape:connector-curvature="0" />
      <path
         style="stroke-width:29.4042263"
         d="m 19160,15860 v 330"
         id="path1046"
         inkscape:connector-curvature="0" />
      <path
         style="stroke-width:29.4042263"
         d="m 19050,15670 -120,350 h 310"
         id="path1048"
         inkscape:connector-curvature="0" />
      <path
         style="stroke-width:29.4042263"
         d="m 19380,15690 h 310 l -170,190 h 70 l 50,30 20,20 30,50 v 120 l -30,40 -20,30 -50,20 h -140 l -50,-20 -20,-30"
         id="path1050"
         inkscape:connector-curvature="0" />
      <path
         style="stroke-width:29.4042263"
         d="m 19850,15690 h 310 l -160,190 h 70 l 50,30 20,20 20,50 v 120 l -20,40 -20,30 -50,20 h -140 l -50,-20 -30,-30"
         id="path1052"
         inkscape:connector-curvature="0" />
    </g>
    <g
       style="fill:#008400;fill-opacity:0;stroke:#008400;stroke-width:29.4042263;stroke-linecap:round;stroke-linejoin:round;stroke-opacity:1"
       id="g1058"
       transform="matrix(0.00518494,0,0,0.00518092,-29.16864,-89.326038)">
      <path
         style="stroke-width:29.4042263"
         d="m 22000,16500 v 1000"
         id="path1056"
         inkscape:connector-curvature="0" />
    </g>
    <g
       style="fill:#008400;fill-opacity:1;stroke:#008400;stroke-width:49.00704575;stroke-linecap:round;stroke-linejoin:round;stroke-opacity:1"
       id="g1064"
       transform="matrix(0.00518494,0,0,0.00518092,-29.16864,-89.326038)">
      <circle
         style="stroke-width:49.00704575"
         cx="22000"
         cy="17500"
         r="200"
         id="circle1062" />
    </g>
    <g
       style="fill:#008400;fill-opacity:0;stroke:#008400;stroke-width:29.4042263;stroke-linecap:round;stroke-linejoin:round;stroke-opacity:1"
       id="g1072"
       transform="matrix(0.00518494,0,0,0.00518092,-29.16864,-89.326038)">
      <path
         style="stroke-width:29.4042263"
         d="m 22000,17500 h 2500"
         id="path1068"
         inkscape:connector-curvature="0" />
      <path
         style="stroke-width:29.4042263"
         d="M 22000,13500 V 12000"
         id="path1070"
         inkscape:connector-curvature="0" />
    </g>
    <g
       style="fill:#840000;fill-opacity:1;stroke:#840000;stroke-width:49.00704575;stroke-linecap:round;stroke-linejoin:round;stroke-opacity:1"
       id="g1080"
       transform="matrix(0.00518494,0,0,0.00518092,-29.16864,-89.326038)">
      <rect
         style="stroke-width:49.00704575"
         x="14000"
         y="16600"
         width="1000"
         height="200"
         rx="0"
         id="rect1078" />
    </g>
    <g
       style="fill:#840000;fill-opacity:0;stroke:#840000;stroke-width:29.4042263;stroke-linecap:round;stroke-linejoin:round;stroke-opacity:1"
       id="g1084"
       transform="matrix(0.00518494,0,0,0.00518092,-29.16864,-89.326038)">
      <polyline
         style="stroke-width:29.4042263"
         fill="none;"
         points="14500,16000 14500,16600 "
         id="polyline1082" />
    </g>
    <g
       style="fill:#008400;fill-opacity:0;stroke:#008400;stroke-width:29.4042263;stroke-linecap:round;stroke-linejoin:round;stroke-opacity:1"
       id="g1094"
       transform="matrix(0.00518494,0,0,0.00518092,-29.16864,-89.326038)">
      <path
         style="stroke-width:29.4042263"
         d="m 14500,16000 v -500"
         id="path1086"
         inkscape:connector-curvature="0" />
      <path
         style="stroke-width:29.4042263"
         d="m 14500,15500 h 500"
         id="path1088"
         inkscape:connector-curvature="0" />
      <path
         style="stroke-width:29.4042263"
         d="m 17000,17000 v 2500"
         id="path1090"
         inkscape:connector-curvature="0" />
      <path
         style="stroke-width:29.4042263"
         d="M 17000,14000 V 12000"
         id="path1092"
         inkscape:connector-curvature="0" />
    </g>
    <g
       style="fill:#008400;fill-opacity:1;stroke:#008400;stroke-width:49.00704575;stroke-linecap:round;stroke-linejoin:round;stroke-opacity:1"
       id="g1100"
       transform="matrix(0.00518494,0,0,0.00518092,-29.16864,-89.326038)">
      <circle
         style="stroke-width:49.00704575"
         cx="17000"
         cy="12000"
         r="200"
         id="circle1098" />
    </g>
    <g
       style="fill:#008400;fill-opacity:0;stroke:#008400;stroke-width:29.4042263;stroke-linecap:round;stroke-linejoin:round;stroke-opacity:1"
       id="g1110"
       transform="matrix(0.00518494,0,0,0.00518092,-29.16864,-89.326038)">
      <path
         style="stroke-width:29.4042263"
         d="m 17000,12000 h 5000"
         id="path1104"
         inkscape:connector-curvature="0" />
      <path
         style="stroke-width:29.4042263"
         d="M 17000,19500 H 11500"
         id="path1106"
         inkscape:connector-curvature="0" />
      <path
         style="stroke-width:29.4042263"
         d="M 11500,19500 V 18500"
         id="path1108"
         inkscape:connector-curvature="0" />
    </g>
    <g
       style="fill:#008400;fill-opacity:1;stroke:#008400;stroke-width:49.00704575;stroke-linecap:round;stroke-linejoin:round;stroke-opacity:1"
       id="g1116"
       transform="matrix(0.00518494,0,0,0.00518092,-29.16864,-89.326038)">
      <circle
         style="stroke-width:49.00704575"
         cx="17000"
         cy="19500"
         r="200"
         id="circle1114" />
    </g>
    <g
       style="fill:#008400;fill-opacity:0;stroke:#008400;stroke-width:29.4042263;stroke-linecap:round;stroke-linejoin:round;stroke-opacity:1"
       id="g1128"
       transform="matrix(0.00518494,0,0,0.00518092,-29.16864,-89.326038)">
      <path
         style="stroke-width:29.4042263"
         d="M 11500,15500 V 12000"
         id="path1120"
         inkscape:connector-curvature="0" />
      <path
         style="stroke-width:29.4042263"
         d="m 11500,12000 h 5500"
         id="path1122"
         inkscape:connector-curvature="0" />
      <path
         style="stroke-width:29.4042263"
         d="M 20000,22000 H 8000"
         id="path1124"
         inkscape:connector-curvature="0" />
      <path
         style="stroke-width:29.4042263"
         d="M 8000,22000 V 17000"
         id="path1126"
         inkscape:connector-curvature="0" />
    </g>
    <g
       style="fill:#008400;fill-opacity:1;stroke:#008400;stroke-width:49.00704575;stroke-linecap:round;stroke-linejoin:round;stroke-opacity:1"
       id="g1134"
       transform="matrix(0.00518494,0,0,0.00518092,-29.16864,-89.326038)">
      <circle
         style="stroke-width:49.00704575"
         cx="20000"
         cy="22000"
         r="200"
         id="circle1132" />
    </g>
    <g
       style="fill:#008400;fill-opacity:0;stroke:#008400;stroke-width:29.4042263;stroke-linecap:round;stroke-linejoin:round;stroke-opacity:1"
       id="g1144"
       transform="matrix(0.00518494,0,0,0.00518092,-29.16864,-89.326038)">
      <path
         style="stroke-width:29.4042263"
         d="m 20000,22000 v 500"
         id="path1138"
         inkscape:connector-curvature="0" />
      <path
         style="stroke-width:29.4042263"
         d="M 8000,14000 V 12000"
         id="path1140"
         inkscape:connector-curvature="0" />
      <path
         style="stroke-width:29.4042263"
         d="m 8000,12000 h 3500"
         id="path1142"
         inkscape:connector-curvature="0" />
    </g>
    <g
       style="fill:#008400;fill-opacity:1;stroke:#008400;stroke-width:49.00704575;stroke-linecap:round;stroke-linejoin:round;stroke-opacity:1"
       id="g1150"
       transform="matrix(0.00518494,0,0,0.00518092,-29.16864,-89.326038)">
      <circle
         style="stroke-width:49.00704575"
         cx="11500"
         cy="12000"
         r="200"
         id="circle1148" />
    </g>
    <g
       style="fill:#008400;fill-opacity:0;stroke:#008400;stroke-width:29.4042263;stroke-linecap:round;stroke-linejoin:round;stroke-opacity:1"
       id="g1158"
       transform="matrix(0.00518494,0,0,0.00518092,-29.16864,-89.326038)">
      <path
         style="stroke-width:29.4042263"
         d="m 17000,12000 v -500"
         id="path1154"
         inkscape:connector-curvature="0" />
      <path
         style="stroke-width:29.4042263"
         d="m 17000,8000 v 500"
         id="path1156"
         inkscape:connector-curvature="0" />
    </g>
    <g
       style="fill:#840000;fill-opacity:0;stroke:#840000;stroke-width:29.4042263;stroke-linecap:round;stroke-linejoin:round;stroke-opacity:1"
       id="g1168"
       transform="matrix(0.00518494,0,0,0.00518092,-29.16864,-89.326038)">
      <circle
         style="stroke-width:29.4042263"
         cx="17000"
         cy="7750"
         r="250"
         id="circle1164" />
      <polyline
         style="stroke-width:29.4042263"
         fill="none;"
         points="17000,8500 17000,8000 "
         id="polyline1166" />
    </g>
    <g
       style="fill:#008484;fill-opacity:0;stroke:#008484;stroke-width:29.4042263;stroke-linecap:round;stroke-linejoin:round;stroke-opacity:1"
       id="g1176"
       transform="matrix(0.00518494,0,0,0.00518092,-29.16864,-89.326038)">
      <path
         style="stroke-width:29.4042263"
         d="m 16500,6510 170,500 160,-500"
         id="path1170"
         inkscape:connector-curvature="0" />
      <path
         style="stroke-width:29.4042263"
         d="m 17280,6960 -20,30 -70,20 h -50 l -70,-20 -50,-50 -20,-50 -30,-90 v -70 l 30,-100 20,-50 50,-40 70,-30 h 50 l 70,30 20,20"
         id="path1172"
         inkscape:connector-curvature="0" />
      <path
         style="stroke-width:29.4042263"
         d="m 17780,6960 -20,30 -70,20 h -50 l -70,-20 -50,-50 -20,-50 -30,-90 v -70 l 30,-100 20,-50 50,-40 70,-30 h 50 l 70,30 20,20"
         id="path1174"
         inkscape:connector-curvature="0" />
    </g>
    <g
       style="fill:#008400;fill-opacity:1;stroke:#008400;stroke-width:49.00704575;stroke-linecap:round;stroke-linejoin:round;stroke-opacity:1"
       id="g1184"
       transform="matrix(0.00518494,0,0,0.00518092,-29.16864,-89.326038)">
      <circle
         style="stroke-width:49.00704575"
         cx="17000"
         cy="8500"
         r="200"
         id="circle1182" />
    </g>
  </g>
</svg>
